socks4://1.179.180.98:4145/
socks4://103.130.196.138:4145/
socks4://186.225.135.54:4145/
socks4://186.249.238.246:4145/
socks4://186.192.253.86:4145/
socks4://103.112.62.90:44550/
socks4://186.232.51.25:31337/
socks4://185.89.0.41:32789/
socks4://41.33.212.68:4145/
socks5://207.97.174.134:1080/
socks5://61.41.9.213:1081/
socks5://102.129.249.120:1080/
socks5://207.154.231.213:1080/
socks5://161.35.70.249:1080/
socks4://5.178.217.227:31019/
socks4://175.100.71.82:47013/
socks4://109.72.97.66:4145/
socks4://54.38.110.35:48034/
